<!-- Generated by IcoMoon.io -->
<svg version="1.1" xmlns="http://www.w3.org/2000/svg" width="1119" height="1024" viewBox="0 0 1119 1024">
<title></title>
<g id="icomoon-ignore">
</g>
<path fill="#fc0" d="M381.622 824.236h245.089v65.469h-245.089v-65.469zM381.622 758.208h245.089v-65.469h-245.089v65.469z"></path>
<path fill="#666" d="M979.795 249.565h-73.303v-245.089h-664.761v245.089h-102.4c-67.707 0-122.544 51.48-122.544 114.71v229.421c0 63.231 54.837 114.71 122.544 114.71h102.4v312.236h665.32v-312.236h73.303c67.707 0 122.544-51.48 122.544-114.71v-229.421c-0.56-63.231-55.397-114.71-123.104-114.71zM837.106 955.174h-525.43v-360.358h525.43v360.358zM837.106 299.366h-525.43v-229.421h525.43v229.421zM944.542 438.138c-29.657 0-53.718-22.383-53.718-50.361 0-27.419 24.061-50.361 53.718-50.361s53.718 22.383 53.718 50.361c0 27.978-24.061 50.361-53.718 50.361z"></path>
</svg>
